…
    ## `summarise()` has grouped output by 'peso_g'. You can override using the `.groups` argument.

    ## # A tibble: 2,283 x 3
    ## # Groups:   peso_g [1,471]
    ##    peso_g sexo_recode frequencia
    ##     <dbl> <chr>            <dbl>
    ##  1  14600 Fêmea          0.00201
    ##  2  12405 Fêmea          0.00201
    ##  3  11600 Fêmea          0.00201
    ##  4  11230 Fêmea          0.00201
    ##  5  10770 Fêmea          0.00201
    ##  6  10545 Fêmea          0.00201
    ##  7  10030 Fêmea          0.00201
    ##  8   9696 Fêmea          0.00201
    ##  9   9200 Fêmea          0.00201
    ## 10   9110 Fêmea          0.00201
    ## # ... with 2,273 more rows
…
``` r
contracheque%>%
  select(rendimento_liquido)%>%
  arrange(desc(rendimento_liquido))
```

    ## # A tibble: 2,433 x 1
    ##    rendimento_liquido
    ##                 <dbl>
    ##  1            132984.
    ##  2            108085.
    ##  3             97976.
    ##  4             93633.
    ##  5             93093.
    ##  6             91889.
    ##  7             88278.
    ##  8             83580.
    ##  9             83476.
    ## 10             83264.
    ## # ... with 2,423 more rows
…
``` r
contracheque%>%
  select(rendimento_liquido, tribunal)%>%
  group_by(tribunal)%>%
  summarise(
    media_rendimento = mean(rendimento_liquido, na.rm = TRUE),
    desvio = sd(rendimento_liquido, na.rm = TRUE),
    cv = ((desvio/media_rendimento)*100)
  )%>%
  arrange(desc(cv))
```

    ## # A tibble: 24 x 4
    ##    tribunal                                        media_rendimento desvio    cv
    ##    <chr>                                                      <dbl>  <dbl> <dbl>
    ##  1 Tribunal Superior Eleitoral                                5543.  8886. 160. 
    ##  2 Conselho Nacional de Justiça                               5247.  7563. 144. 
    ##  3 Tribunal Regional do Trabalho da 2ª Região                22763. 17493.  76.8
    ##  4 Tribunal Regional do Trabalho da 3ª Região                59568. 40858.  68.6
    ##  5 Tribunal Regional Eleitoral de Roraima                     3136.  2036.  64.9
    ##  6 Conselho da Justiça Federal                                 951.   573.  60.3
    ##  7 Tribunal Regional Eleitoral de Sergipe                     3031.  1646.  54.3
    ##  8 Tribunal Superior do Trabalho / Conselho Super~           20315. 11019.  54.2
    ##  9 Tribunal Regional Eleitoral de Rondônia                    3225.  1643.  50.9
    ## 10 Tribunal Regional Eleitoral de Tocantins                   3302.  1543.  46.7
    ## # ... with 14 more rows
…
**Questão 08** A quinta posição, conforme o exibido ao rodar o código
que segue.

``` r
cursos_prouni%>%
  group_by(uf_busca)%>%
  count()%>%
  arrange(desc(n))
```

    ## # A tibble: 28 x 2
    ## # Groups:   uf_busca [28]
    ##    uf_busca     n
    ##    <chr>    <int>
    ##  1 SP       11501
    ##  2 MG        4128
    ##  3 PR        3821
    ##  4 RS        3060
    ##  5 BA        2496
    ##  6 SC        2160
    ##  7 RJ        1425
    ##  8 GO        1238
    ##  9 PA        1192
    ## 10 PE        1148
    ## # ... with 18 more rows

**Questão 09** Rodando o código abaixo, obtive que há 295 cursos
distintos.

``` r
cursos_prouni%>%
  distinct(nome)
```

    ## # A tibble: 295 x 1
    ##    nome                    
    ##    <chr>                   
    ##  1 Medicina                
    ##  2 Enfermagem              
    ##  3 Psicologia              
    ##  4 Engenharia de Computação
    ##  5 Educação Física         
    ##  6 <NA>                    
    ##  7 Direito                 
    ##  8 Engenharia de Produção  
    ##  9 Fisioterapia            
    ## 10 Administração           
    ## # ... with 285 more rows
…
